…
11        11.0
12         9.6
> class(cc)
[1] "data.frame"
> dd <- filter(aa, order == "Primates") %>% select(sleep_total) %>%
+ unlist
> mean(dd)
[1] 10.5
> ?summarise
> summarise(aa, filter(aa, order == "Primates"))
Error in summarise_impl(.data, dots) : 
  Column `filter(aa, order == "Primates")` must be length 1 (a summary value), not 11
> group_by(aa, order
+ )
# A tibble: 83 x 11
# Groups:   order [19]
   name                       genus       vore  order        conservation sleep_total sleep_rem sleep_cycle awake  brainwt  bodywt
   <fct>                      <fct>       <fct> <fct>        <fct>              <dbl>     <dbl>       <dbl> <dbl>    <dbl>   <dbl>
 1 Cheetah                    Acinonyx    carni Carnivora    lc                  12.1      NA        NA      11.9 NA        50    
 2 Owl monkey                 Aotus       omni  Primates     NA                  17         1.8      NA       7    0.0155    0.48 
 3 Mountain beaver            Aplodontia  herbi Rodentia     nt                  14.4       2.4      NA       9.6 NA         1.35 
 4 Greater short-tailed shrew Blarina     omni  Soricomorpha lc                  14.9       2.3       0.133   9.1  0.00029   0.019
 5 Cow                        Bos         herbi Artiodactyla domesticated         4         0.7       0.667  20    0.423   600    
 6 Three-toed sloth           Bradypus    herbi Pilosa       NA                  14.4       2.2       0.767   9.6 NA         3.85 
 7 Northern fur seal          Callorhinus carni Carnivora    vu                   8.7       1.4       0.383  15.3 NA        20.5  
 8 Vesper mouse               Calomys     NA    Rodentia     NA                   7        NA        NA      17   NA         0.045
 9 Dog                        Canis       carni Carnivora    domesticated        10.1       2.9       0.333  13.9  0.07     14    
10 Roe deer                   Capreolus   herbi Artiodactyla lc                   3        NA        NA      21    0.0982   14.8  
# ... with 73 more rows
…
